…
    ## `summarise()` ungrouping output (override with `.groups` argument)

<img src="p8105_hw5_emg2237_files/figure-gfm/unnamed-chunk-14-1.png" width="90%" />

Make a plot showing the average estimate of μ̂ on the y axis and the
true value of μ on the x axis.

``` r
all_sim_results 
```

    ## # A tibble: 35,000 x 3
    ##       mu estimate p_value
    ##    <int>    <dbl>   <dbl>
    ##  1     0    0.661   0.505
    ##  2     0   -0.550   0.587
    ##  3     0   -0.112   0.888
    ##  4     0    0.248   0.746
    ##  5     0   -0.943   0.277
    ##  6     0   -0.127   0.894
    ##  7     0    0.986   0.270
    ##  8     0    0.812   0.289
    ##  9     0    0.185   0.864
    ## 10     0   -0.512   0.488
    ## # … with 34,990 more rows
…
